{
"api.version": "v1",
"sources": [
        {
          "name": "%instance%-applog",
          "sourceType": "LocalFile",
          "multilineProcessingEnabled": true,
          "pathExpression": "/usr/local/tomcat7/logs/*"
        }
        ]
}
